…
``` r
litters_df = 
  janitor::clean_names(litters_df) #Just want clean_names function from janitor package without loading the whole package
names(litters_df)
```

    ## [1] "group"           "litter_number"   "gd0_weight"      "gd18_weight"    
    ## [5] "gd_of_birth"     "pups_born_alive" "pups_dead_birth" "pups_survive"

``` r
litters_df
```

    ## # A tibble: 49 × 8
    ##    group litter_number   gd0_weight gd18_weight gd_of_birth pups_born_alive
    ##    <chr> <chr>           <chr>      <chr>             <dbl>           <dbl>
    ##  1 Con7  #85             19.7       34.7                 20               3
    ##  2 Con7  #1/2/95/2       27         42                   19               8
    ##  3 Con7  #5/5/3/83/3-3   26         41.4                 19               6
    ##  4 Con7  #5/4/2/95/2     28.5       44.1                 19               5
    ##  5 Con7  #4/2/95/3-3     <NA>       <NA>                 20               6
    ##  6 Con7  #2/2/95/3-2     <NA>       <NA>                 20               6
    ##  7 Con7  #1/5/3/83/3-3/2 <NA>       <NA>                 20               9
    ##  8 Con8  #3/83/3-3       <NA>       <NA>                 20               9
    ##  9 Con8  #2/95/3         <NA>       <NA>                 20               8
    ## 10 Con8  #3/5/2/2/95     28.5       <NA>                 20               8
    ## # ℹ 39 more rows
    ## # ℹ 2 more variables: pups_dead_birth <dbl>, pups_survive <dbl>
…
    ## [1] "litter_number" "sex"           "pd_ears"       "pd_eyes"      
    ## [5] "pd_pivot"      "pd_walk"

## Okay what about Excel

CSVs are really great but sometimes you get an excel file. Try to use
CSVs if possible though…

``` r
mlb_df <-  
  read_excel("data_import_examples/mlb11.xlsx")
mlb_df
```

    ## # A tibble: 30 × 12
    ##    team        runs at_bats  hits homeruns bat_avg strikeouts stolen_bases  wins
    ##    <chr>      <dbl>   <dbl> <dbl>    <dbl>   <dbl>      <dbl>        <dbl> <dbl>
    ##  1 Texas Ran…   855    5659  1599      210   0.283        930          143    96
    ##  2 Boston Re…   875    5710  1600      203   0.28        1108          102    90
    ##  3 Detroit T…   787    5563  1540      169   0.277       1143           49    95
    ##  4 Kansas Ci…   730    5672  1560      129   0.275       1006          153    71
    ##  5 St. Louis…   762    5532  1513      162   0.273        978           57    90
    ##  6 New York …   718    5600  1477      108   0.264       1085          130    77
    ##  7 New York …   867    5518  1452      222   0.263       1138          147    97
    ##  8 Milwaukee…   721    5447  1422      185   0.261       1083           94    96
    ##  9 Colorado …   735    5544  1429      163   0.258       1201          118    73
    ## 10 Houston A…   615    5598  1442       95   0.258       1164          118    56
    ## # ℹ 20 more rows
    ## # ℹ 3 more variables: new_onbase <dbl>, new_slug <dbl>, new_obs <dbl>
…
